[{
    "carImage": "AnotherMercedes",
    "title": "Daihatsu Xenia",
    "passenger": 4,
    "brief": 2,
    "price": "250.000"
},
{
    "carImage": "AnotherMercedes",
    "title": "Daihatsu Xenia",
    "passenger": 4,
    "brief": 2,
    "price": "250.000"
},
{
    "carImage": "AnotherMercedes",
    "title": "Daihatsu Xenia",
    "passenger": 4,
    "brief": 2,
    "price": "250.000"
}]